…
```r
# combine
oneData <-  wimas %>%
  right_join(oneData000, by = c('masterid','Year')) %>%
  arrange(Year, masterid)

oneData
```

```
## # A tibble: 44 x 31
## # Groups:   masterid [2]
##    masterid  Year wimasVol_km3 wimasIrrArea_ha wtElev_m wtRelative0_m
##    <chr>    <dbl>        <dbl>           <dbl>    <dbl>         <dbl>
##  1 null_ge…  1996         29.6           9035.     889.        0     
##  2 sheridan  1996         31.8           9688.     832.        0     
##  3 null_ge…  1997         30.7           9096.     889.        0.166 
##  4 sheridan  1997         30.2           9861.     832.        0.498 
##  5 null_ge…  1998         30.6           8996.     888.       -0.209 
##  6 sheridan  1998         29.4           9961.     832.       -0.0929
##  7 null_ge…  1999         24.7           8920.     888.       -0.238 
##  8 sheridan  1999         26.3           9945.     832.        0.218 
##  9 null_ge…  2000         42.0           9227.     888.       -0.929 
## 10 sheridan  2000         40.8           9799.     831.       -0.781 
## # ... with 34 more rows, and 25 more variables: wtRelative2012_m <dbl>,
## #   annualChange_m <dbl>, aimIrr_ha <dbl>, pr_calendar_mm <dbl>,
## #   pr_JanAug_mm <dbl>, pr_grow_mm <dbl>, aridity <dbl>,
## #   totalArea_ha <dbl>, cropActive_ha <dbl>, fallow_ha <dbl>,
## #   doubleCropped_ha <dbl>, nonAg_ha <dbl>, irrigated_ha <dbl>,
## #   rainfed_ha <dbl>, Alfalfa_irrigated_ha <dbl>,
## #   Alfalfa_rainfed_ha <dbl>, Corn_irrigated_ha <dbl>,
## #   Corn_rainfed_ha <dbl>, Sorghum_irrigated_ha <dbl>,
## #   Sorghum_rainfed_ha <dbl>, Soybeans_irrigated_ha <dbl>,
…
